"Status","Replicate"
"Stage40_rep1","Progenitor",1
"Stage40_rep2","Progenitor",2
"Stage40_rep3","Progenitor",3
"Stage42_rep1","Differentiated",1
"Stage42_rep2","Differentiated",2
"Stage42_rep3","Differentiated",3
"Stage44_rep1","Differentiated",1
"Stage44_rep2","Differentiated",2
"Stage44_rep3","Differentiated",3
"Stage45_rep1","Differentiated",1
"Stage45_rep2","Differentiated",2
"Stage45_rep3","Differentiated",3
"Stage46_rep1","Differentiated",1
"Stage46_rep2","Differentiated",2
"Stage46_rep3","Differentiated",3
"Stage47_rep1","Differentiated",1
"Stage47_rep2","Differentiated",2
"Stage47_rep3","Differentiated",3
